@startuml
state HandlingCurrentPlayer {
    [*] --> ControllingInput: InputRequiredEvent
    ControllingInput --> HandlingEvent: CommandHandledEvent

    HandlingEvent -------> [*]: TurnTakenEvent
    HandlingEvent -------> [*]: QuitEvent
    HandlingEvent -------> [*]: SaveEvent
    HandlingEvent -------> [*]: LoadEvent
}
@enduml
