@startuml
state ControllingInput {
 [*] --> ReadingInput: InputRequiredEvent

 ReadingInput -----> InterpretingInput: InputReadEvent

 InterpretingInput -----> HandlingCommand: CommandCreatedEvent

 InterpretingInput -----> ReadingInput: InputRequiredEvent

 HandlingCommand --> [*]: CommandHandledEvent
}
@enduml
